[{"id":1,"numerocuenta":"AZ37 ESNE X5A2 MGEG PZ1M GGJU TGSB","tipo":5,"saldo":50186.67,"moneda":"KWD","id_user":7},
{"id":2,"numerocuenta":"FR02 5494 3694 97C9 8Y5N SVSE K36","tipo":2,"saldo":72923.38,"moneda":"PLN","id_user":6},
{"id":3,"numerocuenta":"ME40 0324 0051 1557 9095 73","tipo":1,"saldo":86054.0,"moneda":"USD","id_user":6},
{"id":4,"numerocuenta":"GR41 3289 783Z TLPN PRWY PSWU 805","tipo":4,"saldo":84743.68,"moneda":"CNY","id_user":7},
{"id":5,"numerocuenta":"FR56 1261 8623 87XR FIA5 IBU8 P29","tipo":5,"saldo":41731.13,"moneda":"PHP","id_user":3},
{"id":6,"numerocuenta":"PS24 MSSI LL8P MOES I4FV WPVX HTNB 2","tipo":4,"saldo":74542.21,"moneda":"CNY","id_user":7},
{"id":7,"numerocuenta":"LU44 792J VQ3S ZAVP TAC1","tipo":2,"saldo":89978.64,"moneda":"CNY","id_user":1},
{"id":8,"numerocuenta":"LU45 656U 9JSL WCTI FTFG","tipo":1,"saldo":32892.64,"moneda":"EUR","id_user":5},
{"id":9,"numerocuenta":"MR59 3133 8618 6173 8192 4589 135","tipo":3,"saldo":28212.06,"moneda":"AMD","id_user":4},
{"id":10,"numerocuenta":"AT07 3961 3449 9045 5332","tipo":2,"saldo":86318.83,"moneda":"PHP","id_user":9},
{"id":11,"numerocuenta":"PT94 1054 0843 9128 0992 5205 6","tipo":4,"saldo":49017.05,"moneda":"EUR","id_user":6},
{"id":12,"numerocuenta":"ES65 2823 1053 1789 0920 8217","tipo":1,"saldo":58732.23,"moneda":"ZWL","id_user":5},
{"id":13,"numerocuenta":"LU24 373U 05B6 AKE5 VU2R","tipo":1,"saldo":54890.71,"moneda":"EUR","id_user":4},
{"id":14,"numerocuenta":"HU59 5869 1877 3579 4788 4852 4198","tipo":3,"saldo":40944.57,"moneda":"CNY","id_user":4},
{"id":15,"numerocuenta":"LI70 4204 2H4W UF2Q AH3T V","tipo":5,"saldo":75141.92,"moneda":"MXN","id_user":2},
{"id":16,"numerocuenta":"CH70 1374 9QDH HGBI JMD8 9","tipo":4,"saldo":89395.92,"moneda":"BRL","id_user":1},
{"id":17,"numerocuenta":"AZ14 FZCX K975 GJFQ FHFY OD5G GM1V","tipo":4,"saldo":33843.07,"moneda":"PLN","id_user":8},
{"id":18,"numerocuenta":"HR42 2336 0949 7753 0238 5","tipo":2,"saldo":38009.57,"moneda":"BRL","id_user":10},
{"id":19,"numerocuenta":"MU48 TMMU 9881 6331 3859 5395 462S ZA","tipo":5,"saldo":18532.55,"moneda":"NGN","id_user":6},
{"id":20,"numerocuenta":"MC86 1911 3113 117I 4RSB RHJO O96","tipo":3,"saldo":87192.38,"moneda":"BRL","id_user":10}]